%!PS-Adobe-3.0 EPSF-3.0
%%Creator: (MATLAB, The Mathworks, Inc. Version 9.3.0.713579 \(R2017b\). Operating System: Linux)
%%Title: /home/niklas/Documents/Repositories/cora/manual/figures/conZonotopesConstraints.eps
%%CreationDate: 2018-06-26T10:57:59
%%Pages: (atend)
%%BoundingBox: 0 0 197 179
%%LanguageLevel: 3
%%EndComments
%%BeginProlog
%%BeginResource: procset (Apache XML Graphics Std ProcSet) 1.2 0
%%Version: 1.2 0
%%Copyright: (Copyright 2001-2003,2010 The Apache Software Foundation. License terms: http://www.apache.org/licenses/LICENSE-2.0)
/bd{bind def}bind def
/ld{load def}bd
/GR/grestore ld
/GS/gsave ld
/RM/rmoveto ld
/C/curveto ld
/t/show ld
/L/lineto ld
/ML/setmiterlimit ld
/CT/concat ld
/f/fill ld
/N/newpath ld
/S/stroke ld
/CC/setcmykcolor ld
/A/ashow ld
/cp/closepath ld
/RC/setrgbcolor ld
/LJ/setlinejoin ld
/GC/setgray ld
/LW/setlinewidth ld
/M/moveto ld
/re {4 2 roll M
1 index 0 rlineto
0 exch rlineto
neg 0 rlineto
cp } bd
/_ctm matrix def
/_tm matrix def
/BT { _ctm currentmatrix pop matrix _tm copy pop 0 0 moveto } bd
/ET { _ctm setmatrix } bd
/iTm { _ctm setmatrix _tm concat } bd
/Tm { _tm astore pop iTm 0 0 moveto } bd
/ux 0.0 def
/uy 0.0 def
/F {
  /Tp exch def
  /Tf exch def
  Tf findfont Tp scalefont setfont
  /cf Tf def  /cs Tp def
} bd
/ULS {currentpoint /uy exch def /ux exch def} bd
/ULE {
  /Tcx currentpoint pop def
  gsave
  newpath
  cf findfont cs scalefont dup
  /FontMatrix get 0 get /Ts exch def /FontInfo get dup
  /UnderlinePosition get Ts mul /To exch def
  /UnderlineThickness get Ts mul /Tt exch def
  ux uy To add moveto  Tcx uy To add lineto
  Tt setlinewidth stroke
  grestore
} bd
/OLE {
  /Tcx currentpoint pop def
  gsave
  newpath
  cf findfont cs scalefont dup
  /FontMatrix get 0 get /Ts exch def /FontInfo get dup
  /UnderlinePosition get Ts mul /To exch def
  /UnderlineThickness get Ts mul /Tt exch def
  ux uy To add cs add moveto Tcx uy To add cs add lineto
  Tt setlinewidth stroke
  grestore
} bd
/SOE {
  /Tcx currentpoint pop def
  gsave
  newpath
  cf findfont cs scalefont dup
  /FontMatrix get 0 get /Ts exch def /FontInfo get dup
  /UnderlinePosition get Ts mul /To exch def
  /UnderlineThickness get Ts mul /Tt exch def
  ux uy To add cs 10 mul 26 idiv add moveto Tcx uy To add cs 10 mul 26 idiv add lineto
  Tt setlinewidth stroke
  grestore
} bd
/QT {
/Y22 exch store
/X22 exch store
/Y21 exch store
/X21 exch store
currentpoint
/Y21 load 2 mul add 3 div exch
/X21 load 2 mul add 3 div exch
/X21 load 2 mul /X22 load add 3 div
/Y21 load 2 mul /Y22 load add 3 div
/X22 load /Y22 load curveto
} bd
/SSPD {
dup length /d exch dict def
{
/v exch def
/k exch def
currentpagedevice k known {
/cpdv currentpagedevice k get def
v cpdv ne {
/upd false def
/nullv v type /nulltype eq def
/nullcpdv cpdv type /nulltype eq def
nullv nullcpdv or
{
/upd true def
} {
/sametype v type cpdv type eq def
sametype {
v type /arraytype eq {
/vlen v length def
/cpdvlen cpdv length def
vlen cpdvlen eq {
0 1 vlen 1 sub {
/i exch def
/obj v i get def
/cpdobj cpdv i get def
obj cpdobj ne {
/upd true def
exit
} if
} for
} {
/upd true def
} ifelse
} {
v type /dicttype eq {
v {
/dv exch def
/dk exch def
/cpddv cpdv dk get def
dv cpddv ne {
/upd true def
exit
} if
} forall
} {
/upd true def
} ifelse
} ifelse
} if
} ifelse
upd true eq {
d k v put
} if
} if
} if
} forall
d length 0 gt {
d setpagedevice
} if
} bd
/RE { % /NewFontName [NewEncodingArray] /FontName RE -
  findfont dup length dict begin
  {
    1 index /FID ne
    {def} {pop pop} ifelse
  } forall
  /Encoding exch def
  /FontName 1 index def
  currentdict definefont pop
  end
} bind def
%%EndResource
%%BeginResource: procset (Apache XML Graphics EPS ProcSet) 1.0 0
%%Version: 1.0 0
%%Copyright: (Copyright 2002-2003 The Apache Software Foundation. License terms: http://www.apache.org/licenses/LICENSE-2.0)
/BeginEPSF { %def
/b4_Inc_state save def         % Save state for cleanup
/dict_count countdictstack def % Count objects on dict stack
/op_count count 1 sub def      % Count objects on operand stack
userdict begin                 % Push userdict on dict stack
/showpage { } def              % Redefine showpage, { } = null proc
0 setgray 0 setlinecap         % Prepare graphics state
1 setlinewidth 0 setlinejoin
10 setmiterlimit [ ] 0 setdash newpath
/languagelevel where           % If level not equal to 1 then
{pop languagelevel             % set strokeadjust and
1 ne                           % overprint to their defaults.
{false setstrokeadjust false setoverprint
} if
} if
} bd
/EndEPSF { %def
count op_count sub {pop} repeat            % Clean up stacks
countdictstack dict_count sub {end} repeat
b4_Inc_state restore
} bd
%%EndResource
%FOPBeginFontDict
%%IncludeResource: font Courier-Oblique
%%IncludeResource: font Courier-BoldOblique
%%IncludeResource: font Courier-Bold
%%IncludeResource: font ZapfDingbats
%%IncludeResource: font Symbol
%%IncludeResource: font Helvetica
%%IncludeResource: font Helvetica-Oblique
%%IncludeResource: font Helvetica-Bold
%%IncludeResource: font Helvetica-BoldOblique
%%IncludeResource: font Times-Roman
%%IncludeResource: font Times-Italic
%%IncludeResource: font Times-Bold
%%IncludeResource: font Times-BoldItalic
%%IncludeResource: font Courier
%FOPEndFontDict
%%BeginResource: encoding WinAnsiEncoding
/WinAnsiEncoding [
/.notdef /.notdef /.notdef /.notdef /.notdef
/.notdef /.notdef /.notdef /.notdef /.notdef
/.notdef /.notdef /.notdef /.notdef /.notdef
/.notdef /.notdef /.notdef /.notdef /.notdef
/.notdef /.notdef /.notdef /.notdef /.notdef
/.notdef /.notdef /.notdef /.notdef /.notdef
/.notdef /.notdef /space /exclam /quotedbl
/numbersign /dollar /percent /ampersand /quotesingle
/parenleft /parenright /asterisk /plus /comma
/hyphen /period /slash /zero /one
/two /three /four /five /six
/seven /eight /nine /colon /semicolon
/less /equal /greater /question /at
/A /B /C /D /E
/F /G /H /I /J
/K /L /M /N /O
/P /Q /R /S /T
/U /V /W /X /Y
/Z /bracketleft /backslash /bracketright /asciicircum
/underscore /quoteleft /a /b /c
/d /e /f /g /h
/i /j /k /l /m
/n /o /p /q /r
/s /t /u /v /w
/x /y /z /braceleft /bar
/braceright /asciitilde /bullet /Euro /bullet
/quotesinglbase /florin /quotedblbase /ellipsis /dagger
/daggerdbl /circumflex /perthousand /Scaron /guilsinglleft
/OE /bullet /Zcaron /bullet /bullet
/quoteleft /quoteright /quotedblleft /quotedblright /bullet
/endash /emdash /asciitilde /trademark /scaron
/guilsinglright /oe /bullet /zcaron /Ydieresis
/space /exclamdown /cent /sterling /currency
/yen /brokenbar /section /dieresis /copyright
/ordfeminine /guillemotleft /logicalnot /sfthyphen /registered
/macron /degree /plusminus /twosuperior /threesuperior
/acute /mu /paragraph /middot /cedilla
/onesuperior /ordmasculine /guillemotright /onequarter /onehalf
/threequarters /questiondown /Agrave /Aacute /Acircumflex
/Atilde /Adieresis /Aring /AE /Ccedilla
/Egrave /Eacute /Ecircumflex /Edieresis /Igrave
/Iacute /Icircumflex /Idieresis /Eth /Ntilde
/Ograve /Oacute /Ocircumflex /Otilde /Odieresis
/multiply /Oslash /Ugrave /Uacute /Ucircumflex
/Udieresis /Yacute /Thorn /germandbls /agrave
/aacute /acircumflex /atilde /adieresis /aring
/ae /ccedilla /egrave /eacute /ecircumflex
/edieresis /igrave /iacute /icircumflex /idieresis
/eth /ntilde /ograve /oacute /ocircumflex
/otilde /odieresis /divide /oslash /ugrave
/uacute /ucircumflex /udieresis /yacute /thorn
/ydieresis
] def
%%EndResource
%FOPBeginFontReencode
/Courier-Oblique findfont
dup length dict begin
  {1 index /FID ne {def} {pop pop} ifelse} forall
  /Encoding WinAnsiEncoding def
  currentdict
end
/Courier-Oblique exch definefont pop
/Courier-BoldOblique findfont
dup length dict begin
  {1 index /FID ne {def} {pop pop} ifelse} forall
  /Encoding WinAnsiEncoding def
  currentdict
end
/Courier-BoldOblique exch definefont pop
/Courier-Bold findfont
dup length dict begin
  {1 index /FID ne {def} {pop pop} ifelse} forall
  /Encoding WinAnsiEncoding def
  currentdict
end
/Courier-Bold exch definefont pop
/Helvetica findfont
dup length dict begin
  {1 index /FID ne {def} {pop pop} ifelse} forall
  /Encoding WinAnsiEncoding def
  currentdict
end
/Helvetica exch definefont pop
/Helvetica-Oblique findfont
dup length dict begin
  {1 index /FID ne {def} {pop pop} ifelse} forall
  /Encoding WinAnsiEncoding def
  currentdict
end
/Helvetica-Oblique exch definefont pop
/Helvetica-Bold findfont
dup length dict begin
  {1 index /FID ne {def} {pop pop} ifelse} forall
  /Encoding WinAnsiEncoding def
  currentdict
end
/Helvetica-Bold exch definefont pop
/Helvetica-BoldOblique findfont
dup length dict begin
  {1 index /FID ne {def} {pop pop} ifelse} forall
  /Encoding WinAnsiEncoding def
  currentdict
end
/Helvetica-BoldOblique exch definefont pop
/Times-Roman findfont
dup length dict begin
  {1 index /FID ne {def} {pop pop} ifelse} forall
  /Encoding WinAnsiEncoding def
  currentdict
end
/Times-Roman exch definefont pop
/Times-Italic findfont
dup length dict begin
  {1 index /FID ne {def} {pop pop} ifelse} forall
  /Encoding WinAnsiEncoding def
  currentdict
end
/Times-Italic exch definefont pop
/Times-Bold findfont
dup length dict begin
  {1 index /FID ne {def} {pop pop} ifelse} forall
  /Encoding WinAnsiEncoding def
  currentdict
end
/Times-Bold exch definefont pop
/Times-BoldItalic findfont
dup length dict begin
  {1 index /FID ne {def} {pop pop} ifelse} forall
  /Encoding WinAnsiEncoding def
  currentdict
end
/Times-BoldItalic exch definefont pop
/Courier findfont
dup length dict begin
  {1 index /FID ne {def} {pop pop} ifelse} forall
  /Encoding WinAnsiEncoding def
  currentdict
end
/Courier exch definefont pop
%FOPEndFontReencode
%%EndProlog
%%Page: 1 1
%%PageBoundingBox: 0 0 197 179
%%BeginPageSetup
[1 0 0 -1 0 179] CT
%%EndPageSetup
GS
[0.75 0 0 0.75 0 0.5] CT
1 GC
N
0 0 262 238 re
f
GR
GS
[0.75 0 0 0.75 0 0.5] CT
1 GC
N
0 0 262 238 re
f
GR
GS
[0.75 0 0 0.75 0 0.5] CT
1 GC
N
63 182.296 M
193.566 197 L
237 152.799 L
237 32.704 L
106.434 18 L
63 62.201 L
cp
f
GR
GS
[0.75 0 0 0.75 0 0.5] CT
1 LJ
0.667 LW
N
106.434 138.095 M
106.434 18 L
S
GR
GS
[0.75 0 0 0.75 0 0.5] CT
1 LJ
0.667 LW
N
106.434 138.095 M
237 152.799 L
S
GR
GS
[0.75 0 0 0.75 0 0.5] CT
1 LJ
0.667 LW
N
63 182.296 M
106.434 138.095 L
S
GR
GS
[0.75 0 0 0.75 0 0.5] CT
0 1 0 RC
N
63 182.296 M
171.717 145.447 L
106.434 18 L
cp
f
GR
GS
[0.75 0 0 0.75 0 0.5] CT
1 setlinecap
1 LJ
0.667 LW
N
171.717 145.447 M
106.434 18 L
S
GR
GS
[0.75 0 0 0.75 0 0.5] CT
2 setlinecap
1 LJ
0.667 LW
N
63 182.296 M
171.717 145.447 L
S
GR
GS
[0.75 0 0 0.75 0 0.5] CT
2 setlinecap
1 LJ
0.667 LW
N
237 152.799 M
237 32.704 L
S
GR
GS
[0.75 0 0 0.75 0 0.5] CT
2 setlinecap
1 LJ
0.667 LW
N
193.566 197 M
237 152.799 L
S
GR
GS
[0.75 0 0 0.75 0 0.5] CT
0.149 GC
2 setlinecap
1 LJ
0.667 LW
N
193.566 197 M
237 152.799 L
S
GR
GS
[0.75 0 0 0.75 0 0.5] CT
0.149 GC
2 setlinecap
1 LJ
0.667 LW
N
237 152.799 M
240.264 153.167 L
S
GR
GS
[0.75 0 0 0.75 184.17299 115.82277] CT
0.149 GC
/Helvetica 13.333 F
GS
[1 0 0 1 0 0] CT
0 13 moveto 
1 -1 scale
(1) t 
GR
GR
GS
[0.75 0 0 0.75 0 0.5] CT
2 setlinecap
1 LJ
0.667 LW
N
106.434 18 M
63 182.296 L
S
GR
GS
[0.75 0 0 0.75 0 0.5] CT
2 setlinecap
1 LJ
0.667 LW
N
63 62.201 M
106.434 18 L
S
GR
GS
[0.75 0 0 0.75 0 0.5] CT
2 setlinecap
1 LJ
0.667 LW
N
106.434 18 M
237 32.704 L
S
GR
GS
[0.75 0 0 0.75 0 0.5] CT
2 setlinecap
1 LJ
0.667 LW
N
193.566 76.905 M
237 32.704 L
S
GR
GS
[0.75 0 0 0.75 0 0.5] CT
0.149 GC
1 setlinecap
1 LJ
0.667 LW
N
215.283 174.9 M
218.547 175.267 L
S
GR
GS
[0.75 0 0 0.75 178.5 165.5] CT
0.149 GC
N
0.406 2.906 M
0.359 2.906 0.32 2.859 QT
0.281 2.813 0.281 2.766 QT
2.594 -6.516 L
2.797 -7.266 3.172 -7.969 QT
3.547 -8.672 4.125 -9.273 QT
4.703 -9.875 5.391 -10.227 QT
6.078 -10.578 6.859 -10.578 QT
7.406 -10.578 7.859 -10.328 QT
8.313 -10.078 8.57 -9.641 QT
8.828 -9.203 8.828 -8.641 QT
8.828 -8.109 8.625 -7.625 QT
8.422 -7.141 8.055 -6.719 QT
7.688 -6.297 7.266 -6.031 QT
7.516 -5.875 7.703 -5.633 QT
7.891 -5.391 8.008 -5.133 QT
8.125 -4.875 8.195 -4.555 QT
8.266 -4.234 8.266 -3.969 QT
8.266 -3.188 7.938 -2.445 QT
7.609 -1.703 7.039 -1.094 QT
6.469 -0.484 5.734 -0.125 QT
5 0.234 4.234 0.234 QT
3.391 0.234 2.719 -0.234 QT
2.047 -0.703 1.781 -1.484 QT
0.703 2.813 L
0.703 2.906 0.594 2.906 QT
0.406 2.906 L
cp
4.266 -0.188 M
4.938 -0.188 5.484 -0.625 QT
6.031 -1.063 6.383 -1.734 QT
6.734 -2.406 6.922 -3.156 QT
7.109 -3.906 7.109 -4.531 QT
7.109 -5.281 6.672 -5.734 QT
6.156 -5.531 5.672 -5.531 QT
4.484 -5.531 4.484 -5.938 QT
4.484 -6.469 5.844 -6.469 QT
6.328 -6.469 6.719 -6.313 QT
7.047 -6.563 7.313 -7.047 QT
7.578 -7.531 7.711 -8.055 QT
7.844 -8.578 7.844 -9.047 QT
7.844 -9.531 7.586 -9.859 QT
7.328 -10.188 6.828 -10.188 QT
5.906 -10.188 5.125 -9.625 QT
4.344 -9.063 3.797 -8.203 QT
3.25 -7.344 3.016 -6.422 QT
2.188 -3.109 L
2.109 -2.766 2.094 -2.344 QT
2.094 -1.406 2.703 -0.797 QT
3.313 -0.188 4.266 -0.188 QT
cp
4.938 -5.984 M
5.156 -5.922 5.688 -5.922 QT
5.938 -5.922 6.203 -6.016 QT
6.188 -6.031 6.141 -6.031 QT
5.984 -6.078 5.797 -6.078 QT
5.109 -6.078 4.938 -5.984 QT
cp
f
GR
GS
[0.75 0 0 0.75 185.25 170.75] CT
0.149 GC
/Helvetica 11.733 F
GS
[1 0 0 1 0 0] CT
0 0 moveto 
1 -1 scale
(2) t 
GR
GR
GS
[0.75 0 0 0.75 167.88509 132.39804] CT
0.149 GC
/Helvetica 13.333 F
GS
[1 0 0 1 0 0] CT
0 13 moveto 
1 -1 scale
(0) t 
GR
GR
GS
[0.75 0 0 0.75 40.82702 136.49868] CT
0.149 GC
/Helvetica 13.333 F
GS
[1 0 0 1 0 0] CT
-14 4.5 moveto 
1 -1 scale
(-1) t 
GR
GR
GS
[0.75 0 0 0.75 0 0.5] CT
0.149 GC
2 setlinecap
1 LJ
0.667 LW
N
63 182.296 M
59.736 181.928 L
S
GR
GS
[0.75 0 0 0.75 0 0.5] CT
0.149 GC
2 setlinecap
1 LJ
0.667 LW
N
63 182.296 M
193.566 197 L
S
GR
GS
[0.75 0 0 0.75 0 0.5] CT
0.149 GC
2 setlinecap
1 LJ
0.667 LW
N
63 182.296 M
60.698 184.639 L
S
GR
GS
[0.75 0 0 0.75 0 0.5] CT
2 setlinecap
1 LJ
0.667 LW
N
63 182.296 M
193.566 197 L
S
GR
GS
[0.75 0 0 0.75 0 0.5] CT
0.149 GC
2 setlinecap
1 LJ
0.667 LW
N
63 182.296 M
63 62.201 L
S
GR
GS
[0.75 0 0 0.75 0 0.5] CT
2 setlinecap
1 LJ
0.667 LW
N
63 182.296 M
63 62.201 L
S
GR
GS
[0.75 0 0 0.75 42.7197 141.83226] CT
0.149 GC
/Helvetica 13.333 F
GS
[1 0 0 1 0 0] CT
-14 13 moveto 
1 -1 scale
(-1) t 
GR
GR
GS
[0.75 0 0 0.75 83.25 171.5] CT
0.149 GC
N
/f-1091192946{0.406 2.906 M
0.359 2.906 0.32 2.859 QT
0.281 2.813 0.281 2.766 QT
2.594 -6.516 L
2.797 -7.266 3.172 -7.969 QT
3.547 -8.672 4.125 -9.273 QT
4.703 -9.875 5.391 -10.227 QT
6.078 -10.578 6.859 -10.578 QT
7.406 -10.578 7.859 -10.328 QT
8.313 -10.078 8.57 -9.641 QT
8.828 -9.203 8.828 -8.641 QT
8.828 -8.109 8.625 -7.625 QT
8.422 -7.141 8.055 -6.719 QT
7.688 -6.297 7.266 -6.031 QT
7.516 -5.875 7.703 -5.633 QT
7.891 -5.391 8.008 -5.133 QT
8.125 -4.875 8.195 -4.555 QT
8.266 -4.234 8.266 -3.969 QT
8.266 -3.188 7.938 -2.445 QT
7.609 -1.703 7.039 -1.094 QT
6.469 -0.484 5.734 -0.125 QT
5 0.234 4.234 0.234 QT
3.391 0.234 2.719 -0.234 QT
2.047 -0.703 1.781 -1.484 QT
0.703 2.813 L
0.703 2.906 0.594 2.906 QT
0.406 2.906 L
cp
4.266 -0.188 M
4.938 -0.188 5.484 -0.625 QT
6.031 -1.063 6.383 -1.734 QT
6.734 -2.406 6.922 -3.156 QT
7.109 -3.906 7.109 -4.531 QT
7.109 -5.281 6.672 -5.734 QT
6.156 -5.531 5.672 -5.531 QT
4.484 -5.531 4.484 -5.938 QT
4.484 -6.469 5.844 -6.469 QT
6.328 -6.469 6.719 -6.313 QT
7.047 -6.563 7.313 -7.047 QT
7.578 -7.531 7.711 -8.055 QT
7.844 -8.578 7.844 -9.047 QT
7.844 -9.531 7.586 -9.859 QT
7.328 -10.188 6.828 -10.188 QT
5.906 -10.188 5.125 -9.625 QT
4.344 -9.063 3.797 -8.203 QT
3.25 -7.344 3.016 -6.422 QT
2.188 -3.109 L
2.109 -2.766 2.094 -2.344 QT
2.094 -1.406 2.703 -0.797 QT
3.313 -0.188 4.266 -0.188 QT
cp
4.938 -5.984 M
5.156 -5.922 5.688 -5.922 QT
5.938 -5.922 6.203 -6.016 QT
6.188 -6.031 6.141 -6.031 QT
5.984 -6.078 5.797 -6.078 QT
5.109 -6.078 4.938 -5.984 QT
cp}def
f-1091192946
f
GR
GS
[0.75 0 0 0.75 90 176.75] CT
0.149 GC
/Helvetica 11.733 F
GS
[1 0 0 1 0 0] CT
0 0 moveto 
1 -1 scale
(1) t 
GR
GR
GS
[0.75 0 0 0.75 0 0.5] CT
0.149 GC
1 setlinecap
1 LJ
0.667 LW
N
128.283 189.648 M
125.981 191.991 L
S
GR
GS
[0.75 0 0 0.75 40.82702 91.46296] CT
0.149 GC
/Helvetica 13.333 F
GS
[1 0 0 1 0 0] CT
-9 4.5 moveto 
1 -1 scale
(0) t 
GR
GR
GS
[0.75 0 0 0.75 0 0.5] CT
0.149 GC
1 setlinecap
1 LJ
0.667 LW
N
63 122.248 M
59.736 121.881 L
S
GR
GS
[0 -0.75 0.75 0 19.5 98.75] CT
0.149 GC
N
f-1091192946
f
GR
GS
[0 -0.75 0.75 0 24.75 92] CT
0.149 GC
/Helvetica 11.733 F
GS
[1 0 0 1 0 0] CT
0 0 moveto 
1 -1 scale
(3) t 
GR
GR
GS
[0.75 0 0 0.75 91.68181 147.34625] CT
0.149 GC
/Helvetica 13.333 F
GS
[1 0 0 1 0 0] CT
-9 13 moveto 
1 -1 scale
(0) t 
GR
GR
GS
[0.75 0 0 0.75 0 0.5] CT
1 LJ
0.667 LW
N
193.566 197 M
193.566 76.905 L
S
GR
GS
[0.75 0 0 0.75 0 0.5] CT
0.149 GC
1 LJ
0.667 LW
N
193.566 197 M
196.83 197.368 L
S
GR
GS
[0.75 0 0 0.75 0 0.5] CT
0.149 GC
1 LJ
0.667 LW
N
193.566 197 M
191.263 199.343 L
S
GR
GS
[0.75 0 0 0.75 151.59719 148.97334] CT
0.149 GC
/Helvetica 13.333 F
GS
[1 0 0 1 0 0] CT
0 13 moveto 
1 -1 scale
(-1) t 
GR
GR
GS
[0.75 0 0 0.75 40.82702 46.42724] CT
0.149 GC
/Helvetica 13.333 F
GS
[1 0 0 1 0 0] CT
-9 4.5 moveto 
1 -1 scale
(1) t 
GR
GR
GS
[0.75 0 0 0.75 0 0.5] CT
0.149 GC
1 LJ
0.667 LW
N
63 62.201 M
59.736 61.833 L
S
GR
GS
[0.75 0 0 0.75 0 0.5] CT
1 LJ
0.667 LW
N
63 62.201 M
193.566 76.905 L
S
GR
GS
[0.75 0 0 0.75 140.64391 152.86023] CT
0.149 GC
/Helvetica 13.333 F
GS
[1 0 0 1 0 0] CT
-9 13 moveto 
1 -1 scale
(1) t 
GR
GR
%%Trailer
%%Pages: 1
%%EOF
